<?xml version="1.0" encoding="UTF-8" standalone="no"?>
<svg
   xmlns:dc="http://purl.org/dc/elements/1.1/"
   xmlns:cc="http://creativecommons.org/ns#"
   xmlns:rdf="http://www.w3.org/1999/02/22-rdf-syntax-ns#"
   xmlns:svg="http://www.w3.org/2000/svg"
   xmlns="http://www.w3.org/2000/svg"
   xmlns:sodipodi="http://sodipodi.sourceforge.net/DTD/sodipodi-0.dtd"
   xmlns:inkscape="http://www.inkscape.org/namespaces/inkscape"
   width="101.40885mm"
   height="91.432388mm"
   viewBox="0 0 101.40885 91.432388"
   version="1.1"
   id="svg8"
   inkscape:version="1.0.1 (3bc2e813f5, 2020-09-07)"
   sodipodi:docname="debounce.svg">
  <defs
     id="defs2" />
  <sodipodi:namedview
     id="base"
     pagecolor="#ffffff"
     bordercolor="#666666"
     borderopacity="1.0"
     inkscape:pageopacity="0.0"
     inkscape:pageshadow="2"
     inkscape:zoom="1.4"
     inkscape:cx="172.04837"
     inkscape:cy="145.06048"
     inkscape:document-units="mm"
     inkscape:current-layer="layer1"
     inkscape:document-rotation="0"
     showgrid="false"
     showguides="true"
     inkscape:guide-bbox="true"
     inkscape:snap-object-midpoints="true"
     inkscape:snap-center="true"
     inkscape:snap-midpoints="true"
     inkscape:snap-smooth-nodes="true"
     inkscape:snap-intersection-paths="true"
     inkscape:object-paths="true"
     inkscape:window-width="1674"
     inkscape:window-height="1007"
     inkscape:window-x="0"
     inkscape:window-y="40"
     inkscape:window-maximized="1"
     fit-margin-top="0"
     fit-margin-left="0"
     fit-margin-right="0"
     fit-margin-bottom="0">
    <sodipodi:guide
       position="84.636832,77.753803"
       orientation="0,-1"
       id="guide835" />
    <sodipodi:guide
       position="86.76633,38.317283"
       orientation="0,-1"
       id="guide837" />
    <sodipodi:guide
       position="8.1472854,38.317293"
       orientation="1,0"
       id="guide854" />
    <sodipodi:guide
       position="81.075327,52.603793"
       orientation="0,-1"
       id="guide858" />
    <sodipodi:guide
       position="79.962758,12.992874"
       orientation="0,-1"
       id="guide860" />
  </sodipodi:namedview>
  <metadata
     id="metadata5">
    <rdf:RDF>
      <cc:Work
         rdf:about="">
        <dc:format>image/svg+xml</dc:format>
        <dc:type
           rdf:resource="http://purl.org/dc/dcmitype/StillImage" />
        <dc:title></dc:title>
      </cc:Work>
    </rdf:RDF>
  </metadata>
  <g
     inkscape:label="Layer 1"
     inkscape:groupmode="layer"
     id="layer1"
     transform="translate(-8.1056904,-41.378936)">
    <rect
       style="fill:#ffffff;fill-opacity:1;stroke:#ffffff;stroke-width:0.750001;stroke-linecap:round;stroke-linejoin:round;stroke-miterlimit:10;stroke-dasharray:none;stroke-opacity:1"
       id="rect1215"
       width="100.65885"
       height="90.682388"
       x="8.480691"
       y="41.753937"
       rx="0"
       ry="0" />
    <path
       style="fill:#a40000;stroke:#000000;stroke-width:1;stroke-linecap:round;stroke-linejoin:bevel;stroke-miterlimit:10;stroke-dasharray:none"
       d="M 16.252976,81.515856 H 94.957223"
       id="path833"
       sodipodi:nodetypes="cc" />
    <path
       style="fill:#a40000;stroke:#000000;stroke-width:1;stroke-linecap:round;stroke-linejoin:bevel;stroke-miterlimit:10;stroke-dasharray:none"
       d="m 16.252976,120.95238 h 80.42712"
       id="path833-3"
       sodipodi:nodetypes="cc" />
    <path
       style="fill:none;stroke:#a40000;stroke-width:0.75;stroke-linecap:round;stroke-linejoin:bevel;stroke-miterlimit:10;stroke-dasharray:none"
       d="m 16.252976,80.207531 19.467894,-2e-6 V 55.057521 h 1.12491 v 25.150008 h 2.118116 v -25.150008 0 h 1.13276 v 25.150008 h 1.45626 V 55.057521 h 46.830187"
       id="path862"
       sodipodi:nodetypes="ccccccccccccc" />
    <path
       style="fill:#000000;fill-opacity:1;stroke:#babdb6;stroke-width:0.750001;stroke-linecap:round;stroke-linejoin:bevel;stroke-miterlimit:10;stroke-dasharray:none;stroke-opacity:1"
       d="m 51.33695,119.81846 -1e-6,-14.33936"
       id="path930-1"
       sodipodi:nodetypes="cc" />
    <path
       style="fill:#000000;fill-opacity:1;stroke:#babdb6;stroke-width:0.750001;stroke-linecap:round;stroke-linejoin:bevel;stroke-miterlimit:10;stroke-dasharray:none;stroke-opacity:1"
       d="M 61.301823,119.81845 V 99.914786"
       id="path930-2"
       sodipodi:nodetypes="cc" />
    <path
       style="fill:#000000;fill-opacity:1;stroke:#babdb6;stroke-width:0.750001;stroke-linecap:round;stroke-linejoin:bevel;stroke-miterlimit:10;stroke-dasharray:none;stroke-opacity:1"
       d="M 71.266691,119.81846 V 96.83778"
       id="path930-7"
       sodipodi:nodetypes="cc" />
    <path
       style="fill:#000000;fill-opacity:1;stroke:#babdb6;stroke-width:0.750001;stroke-linecap:round;stroke-linejoin:bevel;stroke-miterlimit:10;stroke-dasharray:none;stroke-opacity:1"
       d="m 81.231554,119.81845 -4e-6,-24.621327"
       id="path930-0"
       sodipodi:nodetypes="cc" />
    <path
       style="fill:#000000;fill-opacity:1;stroke:#babdb6;stroke-width:0.750001;stroke-linecap:round;stroke-linejoin:bevel;stroke-miterlimit:10;stroke-dasharray:none;stroke-opacity:1"
       d="M 91.196436,119.81845 V 94.494041"
       id="path930-9" />
    <path
       style="fill:none;stroke:#a40000;stroke-width:0.75;stroke-linecap:round;stroke-linejoin:round;stroke-miterlimit:10;stroke-dasharray:none"
       d="m 94.872022,94.494041 c -50.193057,0 -53.499939,25.324409 -53.499939,25.324409 h -0.915822 l -0.673373,-1.89083 -0.608854,1.89083 h -2.103159 l -0.610382,-1.87427 -0.62318,1.87427 H 16.927532"
       id="path864"
       sodipodi:nodetypes="ccccccccc" />
    <text
       xml:space="preserve"
       style="font-style:normal;font-variant:normal;font-weight:normal;font-stretch:normal;font-size:3.52778px;line-height:1.5875px;font-family:'CMU Serif';-inkscape-font-specification:'CMU Serif';text-decoration:none;text-decoration-line:none;text-decoration-color:#000000;fill:none;stroke:#a40000;stroke-width:0.750001;stroke-linecap:round;stroke-linejoin:bevel;stroke-miterlimit:10;stroke-dasharray:none"
       x="32.663349"
       y="53.364719"
       id="text868-2"><tspan
         sodipodi:role="line"
         id="tspan866-9"
         x="32.663349"
         y="53.364719"
         style="font-style:normal;font-variant:normal;font-weight:normal;font-stretch:normal;font-size:3.52778px;font-family:'CMU Serif';-inkscape-font-specification:'CMU Serif';fill:#000000;fill-opacity:1;stroke:none;stroke-width:0.750001">Bounce</tspan></text>
    <text
       xml:space="preserve"
       style="font-style:normal;font-variant:normal;font-weight:normal;font-stretch:normal;font-size:5.29167px;line-height:2.38125px;font-family:'CMU Serif';-inkscape-font-specification:'CMU Serif';text-decoration:none;text-decoration-line:none;text-decoration-color:#000000;fill:none;stroke:#a40000;stroke-width:0.750001;stroke-linecap:round;stroke-linejoin:bevel;stroke-miterlimit:10;stroke-dasharray:none"
       x="97.793739"
       y="83.211418"
       id="text868-2-8"><tspan
         sodipodi:role="line"
         id="tspan866-9-1"
         x="97.793739"
         y="83.211418"
         style="font-style:normal;font-variant:normal;font-weight:normal;font-stretch:normal;font-size:5.29167px;font-family:'CMU Serif';-inkscape-font-specification:'CMU Serif';fill:#000000;fill-opacity:1;stroke:none;stroke-width:0.750001">t</tspan></text>
    <text
       xml:space="preserve"
       style="font-style:normal;font-variant:normal;font-weight:normal;font-stretch:normal;font-size:5.29167px;line-height:2.38125px;font-family:'CMU Serif';-inkscape-font-specification:'CMU Serif';text-decoration:none;text-decoration-line:none;text-decoration-color:#000000;fill:none;stroke:#a40000;stroke-width:0.750001;stroke-linecap:round;stroke-linejoin:bevel;stroke-miterlimit:10;stroke-dasharray:none"
       x="98.454834"
       y="122.57497"
       id="text868-2-8-0"><tspan
         sodipodi:role="line"
         id="tspan866-9-1-3"
         x="98.454834"
         y="122.57497"
         style="font-style:normal;font-variant:normal;font-weight:normal;font-stretch:normal;font-size:5.29167px;font-family:'CMU Serif';-inkscape-font-specification:'CMU Serif';fill:#000000;fill-opacity:1;stroke:none;stroke-width:0.750001">t</tspan></text>
    <path
       style="fill:#a40000;stroke:#000000;stroke-width:1;stroke-linecap:round;stroke-linejoin:bevel;stroke-miterlimit:10;stroke-dasharray:none"
       d="M 16.252976,120.95238 V 94.494041"
       id="path833-3-0"
       sodipodi:nodetypes="cc" />
    <path
       style="fill:#a40000;stroke:#000000;stroke-width:1;stroke-linecap:round;stroke-linejoin:bevel;stroke-miterlimit:10;stroke-dasharray:none"
       d="M 16.252976,81.515856 V 55.057516"
       id="path833-3-0-4"
       sodipodi:nodetypes="cc" />
    <text
       xml:space="preserve"
       style="font-style:normal;font-variant:normal;font-weight:normal;font-stretch:normal;font-size:5.29167px;line-height:2.38125px;font-family:'CMU Serif';-inkscape-font-specification:'CMU Serif';text-decoration:none;text-decoration-line:none;text-decoration-color:#000000;fill:none;stroke:#a40000;stroke-width:0.750001;stroke-linecap:round;stroke-linejoin:bevel;stroke-miterlimit:10;stroke-dasharray:none"
       x="19.224627"
       y="97.26033"
       id="text868-2-8-0-4"><tspan
         sodipodi:role="line"
         id="tspan866-9-1-3-4"
         x="19.224627"
         y="97.26033"
         style="font-style:normal;font-variant:normal;font-weight:normal;font-stretch:normal;font-size:5.29167px;font-family:'CMU Serif';-inkscape-font-specification:'CMU Serif';fill:#000000;fill-opacity:1;stroke:none;stroke-width:0.750001">v</tspan></text>
    <text
       xml:space="preserve"
       style="font-style:normal;font-variant:normal;font-weight:normal;font-stretch:normal;font-size:5.29167px;line-height:2.38125px;font-family:'CMU Serif';-inkscape-font-specification:'CMU Serif';text-decoration:none;text-decoration-line:none;text-decoration-color:#000000;fill:none;stroke:#a40000;stroke-width:0.750001;stroke-linecap:round;stroke-linejoin:bevel;stroke-miterlimit:10;stroke-dasharray:none"
       x="19.027573"
       y="57.721085"
       id="text868-2-8-0-4-4"><tspan
         sodipodi:role="line"
         id="tspan866-9-1-3-4-7"
         x="19.027573"
         y="57.721085"
         style="font-style:normal;font-variant:normal;font-weight:normal;font-stretch:normal;font-size:5.29167px;font-family:'CMU Serif';-inkscape-font-specification:'CMU Serif';fill:#000000;fill-opacity:1;stroke:none;stroke-width:0.750001">v</tspan></text>
    <text
       xml:space="preserve"
       style="font-style:normal;font-variant:normal;font-weight:normal;font-stretch:normal;font-size:3.52778px;line-height:1.5875px;font-family:'CMU Serif';-inkscape-font-specification:'CMU Serif';text-decoration:none;text-decoration-line:none;text-decoration-color:#000000;fill:none;stroke:#a40000;stroke-width:0.750001;stroke-linecap:round;stroke-linejoin:bevel;stroke-miterlimit:10;stroke-dasharray:none"
       x="47.112083"
       y="125.06213"
       id="text868-2-8-0-6"><tspan
         sodipodi:role="line"
         id="tspan866-9-1-3-3"
         x="47.112083"
         y="125.06213"
         style="font-style:normal;font-variant:normal;font-weight:normal;font-stretch:normal;font-size:3.52778px;font-family:'CMU Serif';-inkscape-font-specification:'CMU Serif';fill:#000000;fill-opacity:1;stroke:none;stroke-width:0.750001">1RC</tspan></text>
    <text
       xml:space="preserve"
       style="font-style:normal;font-variant:normal;font-weight:normal;font-stretch:normal;font-size:3.52778px;line-height:1.5875px;font-family:'CMU Serif';-inkscape-font-specification:'CMU Serif';text-decoration:none;text-decoration-line:none;text-decoration-color:#000000;fill:none;stroke:#a40000;stroke-width:0.750001;stroke-linecap:round;stroke-linejoin:bevel;stroke-miterlimit:10;stroke-dasharray:none"
       x="57.319073"
       y="125.06213"
       id="text868-2-8-0-6-1"><tspan
         sodipodi:role="line"
         id="tspan866-9-1-3-3-7"
         x="57.319073"
         y="125.06213"
         style="font-style:normal;font-variant:normal;font-weight:normal;font-stretch:normal;font-size:3.52778px;font-family:'CMU Serif';-inkscape-font-specification:'CMU Serif';fill:#000000;fill-opacity:1;stroke:none;stroke-width:0.750001">2RC</tspan></text>
    <text
       xml:space="preserve"
       style="font-style:normal;font-variant:normal;font-weight:normal;font-stretch:normal;font-size:3.52778px;line-height:1.5875px;font-family:'CMU Serif';-inkscape-font-specification:'CMU Serif';text-decoration:none;text-decoration-line:none;text-decoration-color:#000000;fill:none;stroke:#a40000;stroke-width:0.750001;stroke-linecap:round;stroke-linejoin:bevel;stroke-miterlimit:10;stroke-dasharray:none"
       x="67.526054"
       y="125.06213"
       id="text868-2-8-0-6-5"><tspan
         sodipodi:role="line"
         id="tspan866-9-1-3-3-9"
         x="67.526054"
         y="125.06213"
         style="font-style:normal;font-variant:normal;font-weight:normal;font-stretch:normal;font-size:3.52778px;font-family:'CMU Serif';-inkscape-font-specification:'CMU Serif';fill:#000000;fill-opacity:1;stroke:none;stroke-width:0.750001">3RC</tspan></text>
    <text
       xml:space="preserve"
       style="font-style:normal;font-variant:normal;font-weight:normal;font-stretch:normal;font-size:3.52778px;line-height:1.5875px;font-family:'CMU Serif';-inkscape-font-specification:'CMU Serif';text-decoration:none;text-decoration-line:none;text-decoration-color:#000000;fill:none;stroke:#a40000;stroke-width:0.750001;stroke-linecap:round;stroke-linejoin:bevel;stroke-miterlimit:10;stroke-dasharray:none"
       x="77.733047"
       y="125.06213"
       id="text868-2-8-0-6-6"><tspan
         sodipodi:role="line"
         id="tspan866-9-1-3-3-2"
         x="77.733047"
         y="125.06213"
         style="font-style:normal;font-variant:normal;font-weight:normal;font-stretch:normal;font-size:3.52778px;font-family:'CMU Serif';-inkscape-font-specification:'CMU Serif';fill:#000000;fill-opacity:1;stroke:none;stroke-width:0.750001">4RC</tspan></text>
    <text
       xml:space="preserve"
       style="font-style:normal;font-variant:normal;font-weight:normal;font-stretch:normal;font-size:3.52778px;line-height:1.5875px;font-family:'CMU Serif';-inkscape-font-specification:'CMU Serif';text-decoration:none;text-decoration-line:none;text-decoration-color:#000000;fill:none;stroke:#a40000;stroke-width:0.750001;stroke-linecap:round;stroke-linejoin:bevel;stroke-miterlimit:10;stroke-dasharray:none"
       x="87.940033"
       y="125.06213"
       id="text868-2-8-0-6-17"><tspan
         sodipodi:role="line"
         id="tspan866-9-1-3-3-8"
         x="87.940033"
         y="125.06213"
         style="font-style:normal;font-variant:normal;font-weight:normal;font-stretch:normal;font-size:3.52778px;font-family:'CMU Serif';-inkscape-font-specification:'CMU Serif';fill:#000000;fill-opacity:1;stroke:none;stroke-width:0.750001">5RC</tspan></text>
    <text
       xml:space="preserve"
       style="font-style:normal;font-variant:normal;font-weight:normal;font-stretch:normal;font-size:3.52777px;line-height:1.5875px;font-family:'CMU Serif';-inkscape-font-specification:'CMU Serif';text-decoration:none;text-decoration-line:none;text-decoration-color:#000000;fill:none;stroke:#a40000;stroke-width:0.750001;stroke-linecap:round;stroke-linejoin:bevel;stroke-miterlimit:10;stroke-dasharray:none"
       x="48.111797"
       y="102.38497"
       id="text868-2-8-0-6-57"><tspan
         sodipodi:role="line"
         id="tspan866-9-1-3-3-4"
         x="48.111797"
         y="102.38497"
         style="font-style:normal;font-variant:normal;font-weight:normal;font-stretch:normal;font-size:3.52777px;font-family:'CMU Serif';-inkscape-font-specification:'CMU Serif';fill:#000000;fill-opacity:1;stroke:none;stroke-width:0.750001">63%</tspan></text>
    <text
       xml:space="preserve"
       style="font-style:normal;font-variant:normal;font-weight:normal;font-stretch:normal;font-size:3.52777px;line-height:1.5875px;font-family:'CMU Serif';-inkscape-font-specification:'CMU Serif';text-decoration:none;text-decoration-line:none;text-decoration-color:#000000;fill:none;stroke:#a40000;stroke-width:0.750001;stroke-linecap:round;stroke-linejoin:bevel;stroke-miterlimit:10;stroke-dasharray:none"
       x="58.335835"
       y="97.987099"
       id="text868-2-8-0-6-57-1"><tspan
         sodipodi:role="line"
         id="tspan866-9-1-3-3-4-8"
         x="58.335835"
         y="97.987099"
         style="font-style:normal;font-variant:normal;font-weight:normal;font-stretch:normal;font-size:3.52777px;font-family:'CMU Serif';-inkscape-font-specification:'CMU Serif';fill:#000000;fill-opacity:1;stroke:none;stroke-width:0.750001">86%</tspan></text>
    <text
       xml:space="preserve"
       style="font-style:normal;font-variant:normal;font-weight:normal;font-stretch:normal;font-size:3.52777px;line-height:1.5875px;font-family:'CMU Serif';-inkscape-font-specification:'CMU Serif';text-decoration:none;text-decoration-line:none;text-decoration-color:#000000;fill:none;stroke:#a40000;stroke-width:0.750001;stroke-linecap:round;stroke-linejoin:bevel;stroke-miterlimit:10;stroke-dasharray:none"
       x="67.979317"
       y="95.189011"
       id="text868-2-8-0-6-57-5"><tspan
         sodipodi:role="line"
         id="tspan866-9-1-3-3-4-9"
         x="67.979317"
         y="95.189011"
         style="font-style:normal;font-variant:normal;font-weight:normal;font-stretch:normal;font-size:3.52777px;font-family:'CMU Serif';-inkscape-font-specification:'CMU Serif';fill:#000000;fill-opacity:1;stroke:none;stroke-width:0.750001">95%</tspan></text>
    <text
       xml:space="preserve"
       style="font-style:normal;font-variant:normal;font-weight:normal;font-stretch:normal;font-size:3.52777px;line-height:1.5875px;font-family:'CMU Serif';-inkscape-font-specification:'CMU Serif';text-decoration:none;text-decoration-line:none;text-decoration-color:#000000;fill:none;stroke:#a40000;stroke-width:0.750001;stroke-linecap:round;stroke-linejoin:bevel;stroke-miterlimit:10;stroke-dasharray:none"
       x="78.058144"
       y="93.355835"
       id="text868-2-8-0-6-57-7"><tspan
         sodipodi:role="line"
         id="tspan866-9-1-3-3-4-5"
         x="78.058144"
         y="93.355835"
         style="font-style:normal;font-variant:normal;font-weight:normal;font-stretch:normal;font-size:3.52777px;font-family:'CMU Serif';-inkscape-font-specification:'CMU Serif';fill:#000000;fill-opacity:1;stroke:none;stroke-width:0.750001">98%</tspan></text>
    <text
       xml:space="preserve"
       style="font-style:normal;font-variant:normal;font-weight:normal;font-stretch:normal;font-size:3.52777px;line-height:1.5875px;font-family:'CMU Serif';-inkscape-font-specification:'CMU Serif';text-decoration:none;text-decoration-line:none;text-decoration-color:#000000;fill:none;stroke:#a40000;stroke-width:0.750001;stroke-linecap:round;stroke-linejoin:bevel;stroke-miterlimit:10;stroke-dasharray:none"
       x="88.225708"
       y="92.940048"
       id="text868-2-8-0-6-57-3"><tspan
         sodipodi:role="line"
         id="tspan866-9-1-3-3-4-88"
         x="88.225708"
         y="92.940048"
         style="font-style:normal;font-variant:normal;font-weight:normal;font-stretch:normal;font-size:3.52777px;font-family:'CMU Serif';-inkscape-font-specification:'CMU Serif';fill:#000000;fill-opacity:1;stroke:none;stroke-width:0.750001">99%</tspan></text>
    <text
       xml:space="preserve"
       style="font-style:normal;font-variant:normal;font-weight:normal;font-stretch:normal;font-size:5.29167px;line-height:2.38125px;font-family:'CMU Serif';-inkscape-font-specification:'CMU Serif';text-decoration:none;text-decoration-line:none;text-decoration-color:#000000;fill:none;stroke:#a40000;stroke-width:0.750001;stroke-linecap:round;stroke-linejoin:bevel;stroke-miterlimit:10;stroke-dasharray:none"
       x="42.314827"
       y="48.989861"
       id="text868-2-9"><tspan
         sodipodi:role="line"
         id="tspan866-9-6"
         x="42.314827"
         y="48.989861"
         style="font-style:normal;font-variant:normal;font-weight:normal;font-stretch:normal;font-size:5.29167px;font-family:'CMU Serif';-inkscape-font-specification:'CMU Serif';fill:#000000;fill-opacity:1;stroke:none;stroke-width:0.750001">Before Filter</tspan></text>
    <text
       xml:space="preserve"
       style="font-style:normal;font-variant:normal;font-weight:normal;font-stretch:normal;font-size:5.29167px;line-height:2.38125px;font-family:'CMU Serif';-inkscape-font-specification:'CMU Serif';text-decoration:none;text-decoration-line:none;text-decoration-color:#000000;fill:none;stroke:#a40000;stroke-width:0.750001;stroke-linecap:round;stroke-linejoin:bevel;stroke-miterlimit:10;stroke-dasharray:none"
       x="42.259277"
       y="89.063652"
       id="text868-2-9-4"><tspan
         sodipodi:role="line"
         id="tspan866-9-6-3"
         x="42.259277"
         y="89.063652"
         style="font-style:normal;font-variant:normal;font-weight:normal;font-stretch:normal;font-size:5.29167px;font-family:'CMU Serif';-inkscape-font-specification:'CMU Serif';fill:#000000;fill-opacity:1;stroke:none;stroke-width:0.750001">After Filter</tspan></text>
  </g>
</svg>
